{
   "abstract" : "Job Submission to Slurm",
   "author" : [
      "Jillian Rowe, C<< <jillian.e.rowe at gmail.com> >>"
   ],
   "dynamic_config" : 0,
   "generated_by" : "Dist::Zilla version 5.040, Dist::Milla version v1.0.15, CPAN::Meta::Converter version 2.150005",
   "license" : [
      "perl_5"
   ],
   "meta-spec" : {
      "url" : "http://search.cpan.org/perldoc?CPAN::Meta::Spec",
      "version" : 2
   },
   "name" : "HPC-Runner-Slurm",
   "no_index" : {
      "directory" : [
         "eg",
         "examples",
         "inc",
         "share",
         "t",
         "xt"
      ]
   },
   "prereqs" : {
      "build" : {
         "requires" : {
            "Module::Build" : "0.28",
            "Test::More" : "0",
            "Test::Pod" : "0"
         }
      },
      "configure" : {
         "requires" : {
            "Module::Build" : "0.28"
         }
      },
      "develop" : {
         "requires" : {
            "Dist::Milla" : "v1.0.15",
            "Test::Pod" : "1.41"
         }
      },
      "runtime" : {
         "requires" : {
            "Carp" : "0",
            "Cwd" : "0",
            "Data::Dumper" : "0",
            "DateTime" : "0",
            "DateTime::Format::Duration" : "0",
            "File::Path" : "0",
            "File::Temp" : "0",
            "HPC::Runner" : "0",
            "IO::File" : "0",
            "IO::Select" : "0",
            "IPC::Open3" : "0",
            "Log::Log4perl" : "0",
            "Moose" : "0",
            "Moose::Util::TypeConstraints" : "0",
            "MooseX::Getopt" : "0",
            "MooseX::SimpleConfig" : "0",
            "Symbol" : "0",
            "Template" : "0",
            "perl" : "5.006"
         }
      }
   },
   "release_status" : "stable",
   "version" : "2.38",
   "x_contributors" : [
      "jerowe <jillian.e.rowe@gmail.com>",
      "Jillian Rowe <jir2004@qatar-med.cornell.edu>"
   ]
}

